:100100003EA7D3403E40D340CD453A3E00320D7924
:1001100021000039229D140E0221B63C110300413A
:10012000CDD0BF21203D11030141CDD0BF218A3D5B
:1001300011030241CDD0BFCD6F380C0C79FE6C207D
:10014000D821F3571105043E060E06CDEE2BCD74D3
:1001500038CDFDBCFE51CA9814FE1220F432A238EC
:10016000AF32300F322F0FCD453A21B63C1103008C
:10017000066ACDD0BF21203D110301066ACDD0BF54
:10018000218A3D110302066ACDD0BF210F58110408
:10019000043E020E06CDEE2BCDFE01066FCDC1381A
:1001A00010FBCDA33828F4CD213C473A2F0F323035
:1001B0000FCB402013CB482017CB70201CCB7820CE
:1001C00026CB58C2390218D33DF2F6013E04182658
:1001D0003CFE0538213E00181D473C3CFE04381605
:1001E000783D3DE601180F47FE0238063D3DE60129
:1001F00018043C3C1800322F0FCDFE01189D3A30F8
:100200000F211C02CD260221A43C0606CDD0BF3A08
:100210002F0F211C02CD2602CD8310C903040C042C
:1002200001050905100516005F19195E2356C94C12
:1002300002BD0AE90A730E8D0E3A2F0F212F021606
:10024000005F19195E2356EBE9000000216701E504
:10025000CD453A2188021100003E030E06CDEE2B5B
:10026000CD91102A7C642600CDF43821ED38110799
:10027000010602CDF1BF3E02324902324A02AF32DC
:100280004B02CD3E03C3F0021720EABEAFC3A8DD88
:10029000B8DEEA202020BEB0CCDE2020DBB0C4DEF9
:1002A00004B5D3BB3A10CCDFD8BEAFC42020202089
:1002B00020B3A8DDB8DE10B4DDBCDEDD20202020B8
:1002C0002020CADDC4DED914CCDEDAB0B72020206D
:1002D000202020C4D7DDBDD0AFBCAEDD13C0B2D46A
:1002E0002020202020202020BBBDCDDFDDBCAEDDC6
:1002F000CDA33828FBCD213C473A4902324A02CBF4
:10030000402018CB48201ACB70201DCB782021CB61
:1003100058C26B03CB50C2850318D5B728D23D18FD
:1003200015FE0928CB3C180EFE0830C43C3C1806CC
:10033000FE0238BC3D3D324902CD3E0318B23A4A76
:1003400002215703CD2602CD7D103A4902215703E1
:10035000CD2602CD8310C90C00120002020D02024C
:10036000030D0302040D0402050D05217103C33FB3
:10037000028603890479054106790609074907AD14
:1003800007AD08E908C9110400CDFC09CD1204FE2F
:10039000FFCA5002110200CDFC0921010506181107
:1003A0000000CDF1BF21480D0618110001CDF1BFAD
:1003B000CD74383A8704215368112100CDE33822E7
:1003C000DC03010800117105EDB00608CD1905FE2A
:1003D000FFCA50023A7105B7CA50021100002171DC
:1003E00005010800EDB0215964011900EDB01101BB
:1003F00002CDFC092109040609110803CDF1BFCD86
:10040000A338FE1220F9C35002BEB0CCDE20BCCF10
:10041000BCC021D7041104013E040E05CDEE2B21F2
:10042000536816021E0C0608CDF1BF14011A00090C
:100430007AFE0520EF3A88045714141E03CD7D1070
:100440003A87045714141E033E20CD8310CDA338E1
:1004500028FBCD213CB728F5472187047E3288044C
:10046000CB58200ECB50200BCB70200ACB78200F1E
:1004700018C3C93EFFC93CFE033801AF7718B63D2B
:10048000F27C043E0218F50000110400CDFC09CDF9
:100490001204FEFFCA50023A87042153681121005A
:1004A000CDE3387EB728E811080019115964011905
:1004B00000EDB0110102CDFC0921CE04060911089E
:1004C00003CDF1BFCDA338FE1220F9C35002DBB03B
:1004D000C4DE20BCCFBCC011CCA7B2D920A620B4AA
:1004E000D7DDC3DEB8C0DEBBB20766696C652031FC
:1004F0003A0766696C6520323A0766696C65203395
:100500003A202020CCA7B2D9D2B220A620B2DAC39A
:10051000B8C0DEBBB220202020C5110102CDFC09ED
:10052000217105C1783263057EB7280623052802AC
:1005300018F6E5C51108032171050608CDF1BFCDF8
:100540003C37FEFF2815FEFE2815FEFD281FC1E1E1
:100550004F78B728DD7977230518D7C1E118D3C1C3
:10056000E178FE003EFFC804AF2B7718C5C1E1AFAC
:10057000C90000000000000000110202CDFC0911BA
:100580000404CD8C10111404CD831021FD05110637
:1005900003060CCDF1BF2109063AFC05110C00CD74
:1005A000E338110604060CCDF1BFCDA33828FBCDEE
:1005B000213C473AFC05CB4028083DF2DB053E03D1
:1005C0001819CB4828083CFE043810AF180DCB583A
:1005D0002802180CCB502803C3500232FC0518B671
:1005E0003AFC0587213906CD23285E2356EB1159A5
:1005F00064011900EDB0CD2109C3500200CDDEB079
:10060000BD20BEAFC3A8DDB8DE202020C0B2B7AD8C
:10061000B3202020202020CAB2BDCBDFB0C4DE2012
:1006200020202020C3B8C6B6D9202020202020209A
:10063000C9B0CFD920202020200B6124613D61F278
:1006400060110202CDFC091103030613216606CDD9
:10065000F1BF3A5F64CD3A09FEFFCA5002325F64CF
:10066000CD2109C35002BAB0C5B0D8DDB8DE202014
:1006700020CAB2BDCBDFB0C4DE110202CDFC09112D
:100680000303061321D006CDF1BF3A5964CD3A09D0
:10069000FEFFCA5002325964110303061321E30618
:1006A000CDF1BF3A5A64CD3A09FEFFCA7F06325AED
:1006B00064110303061321F606CDF1BF3A5B64CD46
:1006C0003A09FEFFCA9806325B64CD2109C3500285
:1006D000B9B2D8AEB32020B4DDBCDEDD2020C0B27C
:1006E000B7ADB3C3B2BFB8202020C1ADB0DD20206C
:1006F00020BAB3BFB820C1B2BBD22020D7BCDEB471
:10070000B0C02020B5B5B7D220110202CDFC09112E
:1007100003030613213607CDF1BF3A6064473E0755
:1007200090CD3A09FEFFCA5002473E0790326064FE
:10073000CD2109C35002B6D9B2202020202020208C
:100740002020202020B5D3B220110202CDFC0911B7
:1007500003030613218707CDF1BF3A5C64CD3A0944
:10076000FEFFCA5002325C641103030613219A078C
:10077000CDF1BF3A5D64CD3A09FEFFCA4F07325D45
:1007800064CD2109C35002B7B6C5B2202020CCDE0B
:10079000DAB0B7202020D6B8B7B8B7B6C5B2202097
:1007A00020B4DDCCDEDA202020D6B8B7B8110202A2
:1007B000CDFC091103030613210008CDF1BF3A63F4
:1007C00064CD3A09FEFFCA50023263641103030686
:1007D00013211308CDF1BF3A646406FF2126084EA9
:1007E0002304B9380220F878CD3A09FEFFCAB307CE
:1007F000212608CD23287E326464CD2109C350020E
:10080000C3B2BFB8D6D820B7DEB1CB2020BBB2BAB6
:10081000B3BFB8C3B2B6B2C3DD20CEDFB2DDC420F1
:10082000BAB3B6B2C3DD41505F6D79848C93216356
:1008300008116664010C00EDB03A6364473E07900E
:10084000B7C80607216664F5C55E23562BEB4F81BA
:1008500010FDCD2328EB73237223C1F10505C804D5
:1008600018E5C91801B6008A00650052004600214B
:100870007664AF77230605D9217D64116664CDD9EE
:1008800036217D643A64645F1600197E470E00B716
:10089000ED5211A00019E57EB83004230C18F80DB4
:1008A00079D9772305D9E1C28408C90000CDCF08E2
:1008B000CA5002325E64CD2109C35002DBDDB8DECE
:1008C000D7B2CC20202020CAB2B8DED8AFCCDF11FE
:1008D0000202CDFC09110303061321BC08CDF1BFB0
:1008E0003A5E64CD3A09FEFFC9110202CDFC09113E
:1008F00003030613210E09CDF1BF3A6164CD3A0915
:10090000FEFFCA5002326164CD2109C35002D4DC1B
:10091000D7B62020202020202020202020B6C0D2A2
:1009200020110102CDFC0921E109060C110603CDBD
:10093000F1BFCDA338FE1220F9C9E60732CF093244
:10094000D0091105047A32610932740932A70921EC
:10095000ED09060FCDF1BF3AD00921D109CD26020C
:10096000160021D0BF0606CD7D103ACF0921D1094E
:10097000CD26021600CD8310CDA33828FBCD213C17
:10098000473ACF09CB4028083DF2C1093E0718314C
:10099000CB4828083CFE083828AF1825CB58281427
:1009A00021D109CD2602160021A43C0606CD7D10DA
:1009B0003ACF09C9CB5028094F3EFF32CF097918E9
:1009C000DF4F3ACF0932D0097932CF09C357090036
:1009D000000400060008000A000C000E00100012BF
:1009E00000BEAFC3A8DDB8DE20BCCFBCC031203212
:1009F000203320342035203620372038437A3C32CB
:100A0000390A217B0A220B0A1E02210000D55E232F
:100A100056232A0B0A2323220B0AEBD1E5CD550AD4
:100A2000E17B3C5FFE0328E2FE1628DEFE1728026B
:100A300018EA78B7C8141E023E00BA28090528CA69
:100A400021810A220B0AD5E5C53E200616CDEEBF50
:100A5000C1E1D118B5E5D5C57AB72808423E00C630
:100A60000810FC577BB72808433E00C60610FC5F01
:100A700006063E03CD5339C1D1E1C98D0AA50A99B5
:100A80000AB10AA43CB70A930AAB0A9F0A00000005
:100A9000E0E060000000030303E0E000000000036A
:100AA00003000000006060606060600303030303F4
:100AB00003000000FFFF00FFFF000000003E0132C6
:100AC0003776CD713ACD310FFEFFCA67013E630E16
:100AD00000CDD80FFEFF28EACD37173A3776FE0152
:100AE000C2BC10CD6617C3BC103E023237763A47FF
:100AF00068B7CA7B0B110202CDFC0921540B110A05
:100B0000033E0A0E05CDEE2B3A530BC603571E08C3
:100B1000CD7D103A520BC603571E08CD8310CDA3CE
:100B20003828FBCD213C4721520B7E32530BCB5052
:100B3000200ECB58200DCB70200FCB78201118DE63
:100B4000C36701B7C25E0C18323CE6017718B93DA5
:100B500018F8000006CABCDED2B6D706C2C2DEB79D
:100B6000B6D70FBEB0CCDEC3DEB0C020BBB8BCDE93
:100B7000AE3F08596573202F204E6FCD453A21387E
:100B80000D110600AF0E02CDEE2BCD74382171058C
:100B9000AF77010700117205EDB00604CD1905FE0F
:100BA000FFCA67013A3776FE03CA7B0E110400CDF7
:100BB000FC0921600D1104013E0A0E05CDEE2B1E2D
:100BC000083A5D0C3C3C57CD7D101E083A5C0C3C4D
:100BD0003C57CD8310CDA33828FBCD213C47215C69
:100BE0000C7E325D0CCB58200BCB70205BCB782079
:100BF00061C3D50BF53A4768B72827CD453A1102AE
:100C000001CDFC0911050221620B3E070E04CDEE59
:100C10002BCDA33828FBFE07CA220CFE16CA67019B
:100C200018EF113F68217105010800EDB0AF1213F4
:100C3000C13E0290123236762149683600114A6868
:100C4000010300EDB0C3660C3CFE033801AF77C36F
:100C5000BF0B3DF24E0C3E0277C3BF0B00003A477C
:100C600068FE03CABB0DCD453A110400CDFC092135
:100C7000820D1104013E030E05CDEE2B21AC0D3A81
:100C80004868110500CDE338110F010605CDF1BF0D
:100C90003A47683CC630110302CD62BE3A4768321B
:100CA0004376CD37172A39762600CDF43821ED3832
:100CB0001108020602CDF1BF3A4768110A0021BAB5
:100CC0000FCDE338110C02060ACDF1BF3A1A0DC65A
:100CD00003571E06CD7D103A190DC603571E06CDCB
:100CE0008310CDA33828FBCD213C4721190D7E323E
:100CF0001A0DCB50200ECB58200DCB702012CB7884
:100D0000201418DEC36701B72811CD5002C3660C4A
:100D10003CE6017718B63D18F80000CD713A3A4725
:100D200068CD980F3E023237763E630E00CDD80F65
:100D3000FEFFCA0001C3BC100EC5CFB420A620B26E
:100D4000DAC3B8C0DEBBB218D3BCDEC6ADB3D8AE12
:100D5000B82042533AB9BD20454E543AB9AFC3B258
:100D600010B8D7BD20A620B4D7DDC3DEB8C0DEBB27
:100D7000B205C9B0CBDEBD04BAB8C5B205DCB0D986
:100D8000C4DE09BDCCDFD8DDC4DAB0BD085FBEDD8E
:100D9000D2205F5F4C092020202020BDC0B0C40CB1
:100DA0002020202020BEAFC3A8DDB8DEDCB0D9C42F
:100DB000DEBAB8C5B220C9B0CBDEBD2149687E23FA
:100DC0001E0106034E23B930011C10F8D5D17BFE5D
:100DD00001283DC630321E0ECD453A21130E1104B6
:100DE000003E010E06CDEE2B3A3776FE032015119C
:100DF000040006053E20CDEEBF3A3F76C630110E08
:100E000000CD62BECD8E38CD8E38CDFDBCC3000185
:100E1000C3C9320DBCB0BDDEDDBEB2BEB7205F209F
:100E2000B20E20202020B5C2B6DABBCFC3DEBCC0D4
:100E300015D7B220BCB0BDDEDD20CA2031B220A65D
:100E400020D2BBDEBCC30F202020B6DEDDCADEAF61
:100E5000C3B8C0DEBBB20120165448414E4B2059E6
:100E60004F5520464F5220504C4159494E47210082
:100E70000000003E03323776C37B0B217105116FF2
:100E80000E010400EDB0AF323676C3C20ACD453A4A
:100E9000110400CDFC0911050021140F3E060E02BD
:100EA000CDEE2B21BA0F16020603C51E04060ACD8D
:100EB000F1BF1423C110F3214D6816020603C5E5E6
:100EC00022C40E2A0000D5CDF43821EB380604D117
:100ED0001E0FCDF1BF14E12323C110E2CDA33828AA
:100EE000FBFE122807FE11CA670118F0110202CD9D
:100EF000FC0921170F0604110A03CDF1BF3AC637CA
:100F0000CB3FCD3A09FEFF2884CB2732C637CD210F
:100F100009C38D0E0E583AB3AAB2C420205A3AD350
:100F2000C4DED90B2A2A20DABAB0C4DE202A2A006D
:100F300000CD453A110400CDFC0921AA0F1105018D
:100F40000610CDF1BF110403CD8C10111403CD8315
:100F5000100E00C521BA0F79110A00CDE338060A38
:100F6000110803CDF1BFCDA33828FBCD213CB72814
:100F7000F5C147CB402809793DFEFF28D64F18D34D
:100F8000CB482809793CFE0328C94F28C6CB5820F6
:100F900006CB50201218BC79324376AF324476CD5E
:100FA000BE14CD0216AFC93EFFC9BAB0BD20A620FF
:100FB000B4D7DDC3DEB8C0DEBBB2BDCBDFB0C4DEAC
:100FC000B3AAB22020D3DDC420BCC3A82020CDB159
:100FD000CBDFDDCADFB0B82032001079324910CD46
:100FE000453A110400CDFC09216B101103010612D2
:100FF000CDF1BF110703CD8C10110F03CD83103E2F
:1010000000F53C6F2600CDF43821EC3811090306B9
:1010100003CDF1BF3E4C110D03CD62BECD53BEFEDC
:101020001228F9CD53BEB728FAFE51CA9814CD2123
:101030003CB728EF47F1CB40200ECB482013CB58CC
:101040002018CB50201D18B9FE00CA01103DC30165
:1010500010FEFED201103CC301103C327564AF3269
:101060007464C93E1132A2383EFFC9C5DD20D8AF35
:10107000C4D920CFC3DE20B2DACFBDB63F3E20CDEB
:1010800062BEC921B03C0606CDD0BFC921AA3C181A
:10109000F5060B2159643E07A6772310F9AF323DC0
:1010A000683E013262642110A42272643A5964E6F7
:1010B000075F3A5B64E60783327C64C921C4373E2C
:1010C00002773A3776FE0120033E0777CD2E08CD12
:1010D0006F083EA6D3403E0B326564CD9110AF2120
:1010E000FA637711FB63010D00EDB0214D647723A6
:1010F000772377237732813132191332AB13213DB5
:101100007677237732EC1221FB6306047723CDC177
:1011100038E607772310F53E0132C5113EBE321086
:101120001A21FB63060434232004342001352310E4
:10113000F5FD215961DD213B64AF328411FD7E0054
:10114000FD2332FA63FE8028D8FE04DA2414CA9103
:1011500037FE06DA3312CAFE12FE08DA1A13CABFC5
:1011600013FE0ADACC13CADB13FE0CDAF413CA0D31
:1011700014FE0EDA3513CA5A13FE0FCAB9112184B0
:10118000113418B9003A84116F2600292929EB215E
:10119000896119C932AD11EB22AA11EB5E235623E6
:1011A000EBD50100000922B3112A00003E00CD2337
:1011B00028B7110000ED52E1C921BF11C33C12CD87
:1011C000C611C37E11003A2264FE78D8CDC138FE24
:1011D000632811FE2F2814FE86281DFE42283BFEA0
:1011E000FE283EC9216164CBE6183BCDC138FE80A4
:1011F000D8215B64CBFE182ECDC138FEE0D8216229
:10120000647ECB7EC06FCDC138E67028F8FE7028B2
:10121000F4B5216264CBFF77180C213D68CBFE1832
:1012200005215C64CBFE21FC633E40BED077C90043
:10123000000000CD7F13C27E11219D12229B122A35
:101240003164CB7CC29D1221000022A311CD8511F7
:101250003E07112964CD9411DA7E11D92AB31122E7
:101260002F12D93E0A113164CD9411DA7E11D92A98
:10127000B3112231122A2F1222A311D93E041129AF
:1012800064CD9411D27E11D92A311222A311D93EF4
:1012900004113164CD9411D27E11C30000210000ED
:1012A0002229642100002231643A2264FED2303DBA
:1012B00047CDC138E67F4F781F1F1FE61F81FE8094
:1012C000DAE91278FE283805215F64CBE6FE6E3835
:1012D0000CCDC138FEE63805216164CBE6212264DD
:1012E0007ED61077D2E912AF77C3E737003E2032BF
:1012F00003643E5A32EC12AFDD77E7C37E11CD7F37
:1013000013C27E11210A13C33C12AF322264321879
:10131000643E01320464C37E1100CD7F13C27E118E
:10132000212613C33C122119137EFE05D27E11C65D
:101330000477C37E11CD7F13C27E11214113C33CBC
:10134000122119137EB7280CFE02CA7E11FE05E594
:10135000CCAC13E13E0277C37E11CD7F13C27E1168
:10136000216613C33C122119137EB7280CFE01CA53
:101370007E11FE06E5CC8A13E13E0177C37E113A69
:101380000464B7C03A4D64B7C0C92139767EB72826
:10139000053D77CA612D21AB137EB728033D77C980
:1013A000AF213976CD6D2DCD8D2DC9002139767EB9
:1013B00047B728063C77B0CA612D21AB1334C92149
:1013C000C513C33C123EA7D340C37E1121D213C321
:1013D0003C123EA6D340C37E11000021E113C33C62
:1013E0001221D9137EFE06CA9D12AF773E0132DA72
:1013F00013C37E1121FA13C33C1221D9137EFE05BB
:10140000CA9D12AF773E0232DA13C37E1121131444
:10141000C33C1221D9137EB7C27E113ADA13F60407
:1014200077C37E1187F54F060011FB63217D76CDD2
:101430009F14112964218576CD9F1411316421896F
:1014400076CD9F14115176218D76CD9F141159764A
:10145000219176CD9F14116176219576CD9F14113F
:10146000741B215564CD9F14F1874F060011086449
:10147000218176CD9F14116976215164CD9F14CDC1
:10148000111ACD552ECDB82ECDAA31CD72173E06EC
:10149000CDF42FDD23C37E112A9D14F9C90000224B
:1014A000AA14232322B514EB092200005E2356EB75
:1014B000FE012804220000C92AB5142B73C93A433F
:1014C000764F214E15110200CDE3385E2356EB22F4
:1014D000712F22952F22BD2F22E42F7921DC1511A7
:1014E0000200CDE3385E2356EB7E3245765F237EE5
:1014F0003246761600210000CDE3387D32507679F1
:1015000021EE15110200CDE3385E2356EB2247761B
:10151000C9B7C8F5D93A507657F1F5087AD93D28B8
:10152000092323083D28030818F4F1C9E5F54F3ACB
:1015300046764779B8380390C60221FA154F3A4FDC
:1015400076477990110200CDE338EBF1E1C95415EB
:101550009215C215CC428E43AE43704450456C4543
:10156000B23F9254AC548246CC46104790475E55E9
:10157000BA4738488648E64876499456D449064AD8
:10158000304AA6426C41AE4A524B7C4B884CF64CDA
:101590003C4DA642B44D024E9254544E3040E64E5D
:1015A000B23FAC54304FAC4FAE435E55DC4F4A5067
:1015B0006C4594565C507051C05196524653C2537C
:1015C0006C41B23F3040CA40A6426C41084292543E
:1015D000AC545E5594563858E65A895D3A58E85AE4
:1015E0008B5D8C58265BB05D90582A5BB45D3C588F
:1015F000EA5A8D5D94582E5BB85DB668166C766FAE
:10160000D672AF21596177115A61012F00EDB03EBA
:1016100080325A61218961224A16215961222F168E
:101620003A43768721F415CD23285E2356EB11002B
:10163000007E23FE80CA67164F7E2347C5791213AA
:1016400010FCEB222F16EBC178110000EDA0EDA0ED
:10165000EDA0EDA0EDA0EDA0EDA0EDA03D20EDEB07
:10166000224A16EBC32E16127E3209634787878003
:101670004723110A637E12231310FA3EFF123A43E6
:10168000768721E215CD23285E2356EB5E23562371
:10169000EB223164D511120019223364192235640A
:1016A00019223764D1EB5E235623EB222964222DC5
:1016B00064111E0019222B64222F643A437687217D
:1016C000E815CD23285E2356EB5E235623EB220A32
:1016D00064D511120019220E6419221264192216FF
:1016E00064D1EB5E235623EB220864220C642210A3
:1016F000642214643EFF21466477237723772A0A05
:1017000063226D762271762275762A0C63226F76BB
:101710002273762277763A46763D210000119000BA
:10172000CDE33822702E3A45763D2100001130007D
:10173000CDE33822992EC93A37763D47213876775E
:101740002377B7C83A43768721D615CD23285E2361
:1017500056EB78FE023801237E21387677237723F3
:101760007723772377C92159613E0F237723772386
:1017700077C93AFA63B7C03A4F763C32C41921169A
:101780006CCDEF172AC91922C5173AC81832C017ED
:101790003A4F76473A4676803C32C41921D672CD0C
:1017A000EF173A4F7632C41921B668CDEF173A4F8A
:1017B00076473A46768032C41921766FCDEF173ED0
:1017C00000B72824210000257C875F87835F1600EF
:1017D0003E0721CB19080606D5E5CDD139E1110622
:1017E0000019D114083D20EDCD8231CD1A20C9E574
:1017F000CD98192017B728023E01325E183A4E766E
:10180000473E909032C7194806001818B728073E7F
:1018100003325E1818053E02325E183A4E7632C721
:10182000190100005F6F26003E06CD2E397B9555CD
:101830005FE10922C519D5E5CDCE18E1D17AB732DD
:10184000C8184FC83E069232C1183AC819FE062879
:10185000013CF5AF32BE183E909232BD183E00FEFC
:10186000023812FE03F54211D1197B905F30011549
:10187000F12811182CF57A16001911CB19F1B72897
:101880002011CB19E5D51190003A4D76CDE3383AC9
:101890004D765F3E0693E1110600CDE338EBE1188B
:1018A00011D53AC8195F3E0693119000CDE338D1A7
:1018B0001800F1F57E1223130D7920F801000009BC
:1018C0003E00835F3001140E00F13D20E6C9AF32C7
:1018D0000C1932F71832F918CD9819CCE518C41242
:1018E00019CD4D19C9B73A4D7620145F16003E0B3D
:1018F0003E069332C81926002E0022C919AFC932FC
:10190000C8195F16003E0A3E06936F260022C919C9
:10191000AFC9F53AC719211800FE0638052BD606BF
:1019200020F7D92AC519CD232822C519D9F1B728FE
:101930000B7D320C193A4D76CDFF18C93E5B7D32D6
:10194000F718AF32F9183A4D76CDEB18C92AC519F8
:101950003AC71947B7C8D9CD9819D9B73AC819287D
:10196000053CF5AF1805F55F3E06935F16003E9007
:10197000CDE3383AC919573ACA19875F87835FAFF1
:1019800032EF39F1F5D5E5C5CDD139C1E11190007E
:1019900019D114F13D20EDC93AC4196F26003A4619
:1019A00076CD2E3932B7197DF53A4F766F26003A4B
:1019B0004676CD2E39673E009432BF19F1BD3E0008
:0B19C000C9E1F1C900000000000000B8
:1019F500356FDB1F17DA981426003E26CD2E39CD1C
:101A0500312E01060011FA68EDB0C9003A3776FEAD
:101A150001280D21101A3AFA63B720137EB720D09A
:101A2500DB1F17DA98143A2264CD213CC3931C7E40
:101A3500B7C0AF32203CDD7EE757DD7E0A4F3A372F
:101A450076FE03060F280F3A3676FE0106003806A5
:101A5500061228020628799092380721203CCBDE11
:101A650018140821CA603AFA63CD23285E08833822
:101A7500EA21203CCBD62A51645E2356D52A8776A7
:101A8500EBE1B7ED52110100CDDC38DA5E1B3E010A
:101A950032381BCB7C28127D2F6F7C2F6723CDDC42
:101AA50038DA5E1B3E0232381B22091B2A51642399
:101AB500235E2356D52A8B76EBE1B7ED5211010053
:101AC500CDDC38DA5E1BCB7C28157D2F6F7C2F672C
:101AD50023CDDC38DA5E1B3A381BEE0132381B2287
:101AE500231B2A091BEB2A231BCDDC3838072209C7
:101AF5001BEB22231BF5D13A381BABCB470600283D
:101B0500020604110000B7CB1ACB1BB7CB1ACB1BAF
:101B1500B7CB1ACB1B7AB720047BB7281C21000052
:101B2500AFED523C30FB3DCB3FCB5028044F3E043C
:101B3500918006000E088110FD47DD7EDD90281995
:101B450021203C300BED44FE103009CBCEC35E1B8B
:101B5500FE1030F7CBC6C35E1BDD7E0EB72018CD59
:101B6500F91BCD3F1CCD4F1CCD1524CD052CC9002F
:101B750000000000000000FE0238222868ED5B0A24
:101B8500642A8B76B7ED522A8976280535C0233528
:101B9500C92A7D76AF772377CDC02C183EED5B87BC
:101BA500762A8376B7ED522A8576280534200223D6
:101BB500342A817623235E23562A8B76B7ED522A63
:101BC5008976280535C02335C92A5564CDC138F62F
:101BD50080CB171600300114772372DD7E0E3CE6AC
:101BE50003DD770EC92A55645E23561B7BB228EBAD
:101BF500722B73C93A203CCB5FC83AFA6321C760A0
:101C0500CD23287EC67C4FDD7EE7473EE690D8B9DA
:101C15003801795F1600DD7EE36F26001911C000DB
:101C2500B706FF04ED5230FB78B77D280919DD7E34
:101C3500E780DD77E77DDD77E3C93A203CCB57C800
:101C4500DD7EE7B7C83DDD77E7C93A203C472A95F1
:101C550076237ECB402005CB482013C9B73E0077BD
:101C6500C8DD7EDD3DF26F1C3E1FDD77DDC9B73E69
:101C75000077C8DD7EDD3CFE203801AFDD77DDC9AC
:101C8500FE02CCC131DD7EE73CC8DD77E7C93A4DC0
:101C950064B720EC3AC511FE02CCC611213D76345D
:101CA5002320067EFE0C2801343A75641F1F1F1F72
:101CB5001FE607473A7C6480323E683A0364FE209B
:101CC500200821EC1235CA632BC93A0464B7C22D2A
:101CD500263A2264B72044215964CB7E210E1D206B
:101CE5000C217564AFB621171D2802182EE51101C8
:101CF50002CDFC09E11108030609CDF1BFCD8E38EF
:101D0500CD8E38CDFDBCC3632BB4DDBCDEDDCCDEB2
:101D1500DBB0C8DDD8AEB3B7DEDA203A7364B7CC32
:101D2500A3253A203CF5CB6F2803CDED37F1CB5FEA
:101D3500C4641D3A203CCB57C45E1ECD791ECDFE32
:101D45001ECDA51FAF325124CD1524CD0921CD3887
:101D550023CDD625CD0426CDC1383A5861C900CD4D
:101D6500AE253A5964CB7FC02A74647CB5C83A3D28
:101D750068CB7F28093CE683323D68E603C8DD7EF3
:101D8500E7B720193A6264E6F8F6013262643A2050
:101D95003CCB7728083A6264E6F83262643A6564B7
:101DA500473E9FB8D858160021855F197E5F21569A
:101DB5001E3A5A644F0600097E473A6564903829F1
:101DC500FE4330252A7464010100B7ED423003213A
:101DD50000002274642185604F0600097E835F3A06
:101DE5005F64FE083801AF835F3A3E68477B9030F9
:101DF50001AF5F3A7C76D620477B3804903001AF3F
:101E05005F3A2264FE64380D3AC511FE022006CB06
:101E15003BCB3BCB3B16003A1E646F260019117F66
:101E25000006007CB720057DFE803805ED520418BC
:101E3500F2321E643A22648030023EFF3222642A66
:101E45007464110100B7ED5230032100002274645F
:101E5500C90E1C2B39485766753A2264B7C8473AEC
:101E65005C64CB7F28011FE6073C4F78913001AFBA
:101E7500322264C92188643A6264E607B728013DC5
:101E850011A000CDE3383A2264470E0C7E230CB82E
:101E95002805300218F60D79FEA138023EA03265FC
:101EA500642A79763A6564470E813A5964E6073CB7
:101EB5001717814F789138280E0806002A79760978
:101EC500300321FFFF2279767CFEF0D8CDC138FEA4
:101ED5006118047CFEFFC03A5964CBFF325964C9CE
:101EE5003A5B64CB7FC02A79763C4F0600B7ED425A
:101EF5003003210000227976C93A2264B7C83A5FD7
:101F050064CB670E0028040E32180BE607CB27CBEF
:101F150027473E20904F3A1E6491321E6430073A9F
:101F250022643D3222643A22641F1F1F1FE60F4FB1
:101F35003A1E6491321E6430073A22643D322264AF
:101F4500CD491FC93A2664E680200B3A203CCB5F79
:101F5500C03A2264B7C83A5D64E6073C2EC03A65CC
:101F6500640E140601D63838369138080878C6024A
:101F7500470818F5260078B728255D2600683A5DDC
:101F8500642FE6073CCD2E39476B3A1E6495321E09
:101F950064300C3A22643D322264B7280210EBC942
:101FA5003A6264E607B7C83A6564473A6464B83884
:101FB5002228202176641106003AFA63CDE3383AE7
:101FC5006264E6073DCAF71FCD23287E3D3DB83044
:101FD50022181F3A203CCB5FCAF71F3A62640E01F4
:101FE500CD7D20280DE607FE0628073A62643C32BF
:101FF5006264C9083A203CCB5FC2F71F083A6264A5
:102005000EFFCD7D2028EBE6073D28E63A62643DCC
:1020150032626418DD3A6264E60721CD202005218D
:10202500C7201808875F87835F1600191159283A5A
:102035002D308257D50606CDC6393A65646F260020
:10204500292929291112023E00060AB7ED52380343
:102055008018F81911350047B7ED5238030418F800
:10206500219120D1D51E5FCDC63921C1200606D1CB
:102075001E893E03CD5339C947E60781B7C8FE0718
:10208500C84F781F1F1F1FE607B978C9FCFC303001
:10209500303030303030303030303030303030303B
:1020A500303030303030303030303030303030302B
:1020B500303030303030303030303030FCFC0000E3
:1020C5000000FEFE121232CC387C82827C3880847D
:1020D500FEFE808084C6E2B29E8C40D29A9EF66255
:1020E50030382C26FE204ECE8A8AFA7078FC9692DD
:1020F500F2600606F2FA0E066CFE9292FE6C0C1E5B
:1021050092D27E3C3A2664B7C272213A28646F2681
:10211500003A27645F1600CB7F280AED445FB7EDD0
:102125004238121806197CB7C26D217CB728067D86
:10213500FE0DD26D212A95765E23567AB7C8AF7704
:102145003A6264E607200F3A203CCB47C2A122CB76
:102155004FC28922180D3A203CCB47C28922CB4F6A
:10216500C2A122AF323C64C93E013226643A5E64A4
:102175005F16002A7264B7ED523003210000227207
:10218500643A3C64B7CA9521FE02DAB922C3FA2241
:102195003A2664CB7F28073A2264B72812C93A2722
:1021A50064CB7F200AFE3C38063A2764FE7FD0AF19
:1021B5003226643A1D6447DD7EDD80F2C521C620E6
:1021C500FE203802D620DD77DDAF32276432266463
:1021D500321C64321D64C93A6164CB672804E60782
:1021E500CB3F4F3A2264CB3F57CB3F5FCB3F6F7A14
:1021F5008385473A5964E607F6045785913001AF60
:102205004F3A28648130023EFF3228646F26003A37
:102215002764CB7F20195F16001911A000CDDC388B
:10222500380D3A2864CB3FCB3F8047300206FF3A52
:102235007364D6421E003003ED445F3A5E643C4F42
:10224500CB21CB213E2091838030023EFF47AF90CA
:1022550047213B647E8077083A5E64E60717473A74
:102265006164E607CB3F80473A3E68CB3FCB3F8072
:102275005F16002A7264B7ED523003210000227206
:10228500647C08C93E01323C64CDDC21D0DD7EDDB5
:102295003DF29B223E1FDD77DDC395213E02323C98
:1022A50064CDDC21D0DD7EDD3CFE202001AFDD7775
:1022B500DDC395212A1C64112600B7ED527CFE2052
:1022C500DACA22261F7CFE1830083A2664F68032C8
:1022D5002664221C643A203CCB4F280E3A2864D64B
:1022E500253001AF322864C395213A2664E680CAB9
:1022F5008922C395212A1C64112600197CFE2038E9
:102305000226007CFE0938083A2664F680322664E7
:10231500221C643A203CCB47280E3A2864D6253047
:1023250001AF322864C395213A2664E680CAA1220A
:10233500C395213A2864D6103001AF3228643A2774
:1023450064CB7F2808C610FA5823AF1806D608F2C2
:102355005823AF3227642172237E473A226490289E
:1023650004304618093A226477CDE623C9001E0CCD
:102375001600210000ED44CDE3387CB720057DFE35
:102385001F38022E1FEB3A2764260084F56FB7ED40
:1023950052F1F2A3237D060080FAA3232E807D321D
:1023A50027643A2264327223C91E101600210000E8
:1023B500CDE3387CB720057DFE1F380426002E1F8F
:1023C5003A2764060080F54F09F1FADB237D060004
:1023D50080F2DC232E7F7D3227643A226432722319
:1023E500C93A203CCB5FC83A2264FE80381B1F1FC8
:1023F5001F1FE60FC612473A5F64E6074F3E079177
:102405002F806F2600CDBC23C96F2600CD8323C93D
:10241500CD7A24323024AF3231242A8D76224824D5
:102425002A8F76DD7EE716005F19110000B7ED52A1
:10243500380F280DD9CD4B24CDA724D9B7ED52306F
:10244500F319220000C93AFA63B7C03E00B7C0E5E8
:102455002A2964ED5B9E12CDDC382803229E122AC0
:102465003164ED5BA412CDDC38280322A412E13ED1
:1024750001325124C9DD7EDD2186245F1600197ED7
:10248500C936373A414C413A3736373A414C413AE9
:102495003736373A414C413A3736373A414C413A6B
:1024A50037003AFA63B73E0420053A6064E607321E
:1024B500A6243A203CE60328312A9576E55E235684
:1024C500D5DD7E02473AA6243C80FE0938023E0847
:1024D500DD77025F16003E15210000CDE3385D165D
:1024E50000E119EBE17323721811DD7E02473AA66C
:1024F500243C4F78913001AFDD7702DD7EDD473A30
:10250500FA63B7200E3A6264E687B720063E10806C
:10251500E61F4758160021212D191956235E7BB752
:10252500283B2A91767ECB7B282083CB7F282DFEE6
:10253500FD3029AF77D52A89765E2356EB2B3003FC
:10254500210000EB722B73D1181383FE04380DAFF5
:1025550077D52A89765E2356EB2318E2777AB72852
:102565003C2A9176237ECB7A282082CB7F282DFEAC
:10257500FD3029AF77D52A85765E2356EB2B3003C0
:10258500210000EB722B73D1181382FE04380DAFB6
:1025950077D52A85765E2356EB2318E277C9212065
:1025A5003C7ECB4FC0CBC67EC92A7B763A5964E6C2
:1025B50007473E0890C6085F160019300321FFFF44
:1025C500227B767CD620D82A7976CD232822797667
:1025D500C92A7B767CB7C83A22641F1F1F1FE60FE6
:1025E50047CB3F80473A5B64CB7FC04FCB3F818071
:1025F5005F1600B7ED523003210000227B76C93A01
:10260500FC63FE80D8CDC138FE04D0CDC138FE486C
:10261500CAE411FE18CAEB11FE9DCAF811FEFBCAE9
:102625001A12FE61CA2112C9FE03CA33283E0B32B3
:102635006564AF3226642A2964EB2A0864CDDC3848
:1026450028073805EB232229642A3164EB2A0A641A
:10265500CDDC38EB2B223164D83E013264263E00B6
:10266500B7C8CD8A13AF3204643A75643264293A27
:102675007C76FE20380C215964CBF63A4D64B7C2FE
:10268500C82721512BAF7711522B010800EDB03E21
:10269500A7D3403E40D340110400CDFC093A39761A
:1026A5006F2600CDF43821EC3811AD2BEDA0EDA04F
:1026B500EDA03A3F76C63032BA2B21A92B11030182
:1026C5003E050E05CDEE2B3A3776FE01200B21DBBC
:1026D5002B1103010613CDF1BFAF32A72B32A82B67
:1026E5003AA82BC602571E03CD7D103AA72BC6026A
:1026F500571E03CD8310CDA33828FBCD213C4721A0
:10270500A72B7E32A82BCB70200ACB78200ECB5876
:10271500201118E2FE0228DE3CC3A32BB728D73DC3
:10272500C3A32BB7280AFE02DA6629CA632B18B0A1
:102735003EFF32B031CDAA312A0864222964AF3276
:1027450044763D324F76CD552E3EA6D3403E0332DC
:1027550004643A7564472164294EAF777990280B54
:10276500ED44011900049130FC707801000011005E
:102775000021512B3EFF32EB273AEB273C32EB276A
:10278500B7CCCE27FE08282D7E23B728ECFE80285F
:10279500E8E53AEB27215A2BCD2328B72849FE0235
:1027A500384D2843FE04383F284DFE063839284F5A
:1027B500FE083843E1AF215F297723702371237227
:1027C5002373C93E64322264C9F5D93A5964CB7F73
:1027D5002806210000227976CB772807217C767E92
:1027E500E60777D9F1C9007ECD2D28804718167EDA
:1027F500CD2D28814F180E7ECD2D28825718067EA7
:10280500CD2D28835FD53AEB2787213F2B5F160017
:10281500195E2356EB7EE60777D1E1C37E27B7C85D
:10282500F5856F300124F1C96FCDD63885C9215F93
:10283500297E230606FE01383223284523FE033868
:102845005E23CAA428237EB7CA1229CD4F2921A009
:102855003F114B1C06063E02CD533921A63F114BB5
:102865002406063E02CD5339C324297EB7CA122950
:10287500CD4F2911491E219A3F3E02CD5339C3241C
:10288500297EB7CA1229F5CD4F29F1214518571EC2
:1028950000ED52EB21AC3F3E02CD5339C324292232
:1028A5000F292128297EB7280E3521943F11401C78
:1028B50006063E02CD53392129297EB7280E35213A
:1028C5009A3F114A1C06063E02CD5339212A297E1C
:1028D500B7280E3521943F11402106063E02CD53FF
:1028E50039212B297EB7281135219A3F114A210616
:1028F500063E02CD5339C324292128295E235623B8
:102905004E2346EB09C22429AF210000773A5F29FF
:102915003CCD2C29FE053804AF320464325F29CD45
:102925006A38C900000000FE02D8FE04D0F5237EF7
:10293500B728152128294F1E04CDD6388147AFC6A3
:102945001010FC77231D20F1F1C93A65293C326549
:1029550029FE1ED835AF326529C9000000000000E8
:1029650000CD453A21C62A1101003E020E06CDEEE4
:102975002BAF213F2B5E235623E5EB46F578E6F892
:10298500213B2B280521392B180DF1F511512BEB86
:102995004F060009CBFEEBF14FF5E50821512B065B
:1029A50000097ECB47E12803213D2B08CDB52A1C24
:1029B5000602CDF1BFF1E13CFE062806FE0820B572
:1029C500180523233C18AE2A7264116810B706FF58
:1029D50004ED5230FB78FE0ADAE2293E09C63011D1
:1029E5000204CD62BE3A75646F2600CDF43821EC41
:1029F500380603110205CDF1BF3AB42ACDB52ACD6B
:102A05007D103AB32ACDB52ACD8310CDA33828FB46
:102A1500CD213C473AB32A32B42ACB40206ACB4871
:102A2500206CCB58200ACB70206CCB78207218DB39
:102A3500FE09CA9426FE06CA572AFE08CA712A212B
:102A4500512B4F0600097EE681FA7629EE0177C300
:102A55007629CDCF08CA6629325E642110A4227278
:102A650064CD21093E0132572BC366293A7564FEB0
:102A7500FFCA66294FCDD80FFEFFCA6629CD2109A9
:102A85003E0132592BC366293DFA102A181A3CFE1D
:102A95000ACA102A18123C3CFE0ADAAD2AC3102ACB
:102AA5003D3DF2AD2AC3102A32B32AC3FE290000E8
:102AB500F547E6012802C6093C5F78CB3F3C57F154
:102AC500C914BADDC3DEA8BCAEDD20B6B8C6DD20AC
:102AD5002620BCADB3D8124F4B3AB4DDBCDEDD20A9
:102AE500204F4B3AB3A8DDB8DE134F4B3AD7BCDEC7
:102AF500B4B0C0204F4B3AC3DEDDB7B9B2124F4B6D
:102B05003ACCDEDAB0B720204F4B3AD0AFBCAEDDC1
:102B15001539DCD83AC0B2D42020204F4B3ABBBD82
:102B2500CDDFDDBCAEDD0D2020203AB6DEBFD8DD21
:102B350020B5DCD94E474F4B525059645F645B64F6
:102B45003D685C64626472646164746400000000E2
:102B550000000000001803050504080604802A9DEE
:102B650014F93A3776FE012003C300013E04213FE4
:102B7500767723E5AF7723772377E10603CDD6383C
:102B8500FE0328F93CCD962B28F3772310EFC3CC11
:102B950031E5C5214076010300EDB1C1E1C977C337
:102BA500E526000013C9BAD82020204C415020BC8E
:102BB500DEADDDB2202020B208CBDFAFC420B1B33B
:102BC500C40FBADDC3DEA8BCAEDD202F20BCADB37B
:102BD500D804D8C0B2B120CCD8B0BFB3BAB3202086
:102BE500CBDFAFC4B2DD20202032FD2B7932002CA3
:102BF5004623CDF1BF23141E007AFE0020F2C90042
:102C0500DD7E0632042C5F1600210A633E05CDE306
:102C150038E5D921000022A311D93E07ED5B857661
:102C2500CD94113842D92AB311222F12D93E0AED7B
:102C35005B8976CD9411382FD92AB3112231122A06
:102C45002F1222A311D93E0421BC2CED5B8576CD34
:102C550094113013D92A311222A311D93E04ED5B08
:102C65008976CD94113802E1C9E1232323237EE53A
:102C7500DD770A3A09634F3A042C3CB92805CDE4BF
:102C85002C1804CDC02CAFDD7706E1237EFEFF2096
:102C950003210A635E235623EB22AF2CEB5E2356FA
:102CA50023EB22B62CEB2A51641100007323722307
:102CB500110000732372C90D000D00DD7E12B7C02F
:102CC5002139763AFA63CD23287EB73EFF280735AA
:102CD5003AFA63CD6D2D3A4D64B7C8DD7712C9F563
:102CE5003C3CB920352139763AFA63CD23287EFE5E
:102CF5000238272A7D76237EFE1B381EAF773E01DC
:102D0500DD770EF1E1E1AFDD7706DD77DDDD77E734
:102D1500DD77E37B87875FC3962CF1C900FC01FC57
:102D250002FC03FC04FC04FD04FE04FF0400040192
:102D35000402040304040304020401040004FF0460
:102D4500FE04FD04FC04FC03FC02FC01FC00FCFF8A
:102D5500FCFEFCFDFCFCFDFCFEFCFFFCCD6D2DCD61
:102D65008D2D3E01324D64C9E5D55F1600D57E2116
:102D750039761E0006044EB938011C2310F8C1210E
:102D85003F7609737ED1E1C93EBE328131CDC33A6A
:102D95003A3776FE0128333A3F76CD312E010600CB
:102DA50011A076EDB03A39766F2600CDF4383AEDBC
:102DB50038CD2C2E01060011AE76EDB03AEE38CDA9
:102DC5002C2E01060011B576EDB0CD402E214D68B3
:102DD5003A4376CB27CD232822ED2D5E23562A3E76
:102DE5002EB7CDDC383003220000060421EB38D99C
:102DF50011BC76D97ED9CD2C2E010600EDB013D9A4
:102E05002310F13A7564FE1E300B21F93A010600D4
:102E150011D876EDB03A7364FE42D021F33A01063B
:102E25000011D876EDB0C9B72802D63021CD20B72C
:102E3500C887478780CD2328C900002A3D76E52924
:102E4500D119223E2ECDF438213D76AF772377C9AF
:102E55003AFA63B7C03A4D64B7C02A2964114200F3
:102E6500ED5230067D210000180D110000B7ED521E
:102E750038047DEB180119323964224B762A316406
:102E85007CFEFF2822AF111200ED5230067D210095
:102E950000180D110000B7ED5238047DEB1801192B
:102EA500323A64224976C9B7111200ED527D2100EC
:102EB5000018ED3A4D64B7C03AFA63B7C0CD182F84
:102EC500CD4B2F3A56614F3A5761815F3A4F76475E
:102ED5007B324F76B8C86826003A4676CD2E3945FE
:102EE5004F6B26003A4676CD2E39555F7892677935
:102EF500936F3A4476B720083E01324476C3652F76
:102F050024CA652F2525CA652F2CCA652F2D2DCAE4
:102F1500652FC93A467632342F08D90E00AFD90845
:102F25002A4976113000B7ED52380A08D94FC60044
:102F35004FD90818F119D979325661D93E08CD2EE5
:102F4500394D324D76C92A4B760E00119000B7EDFA
:102F55005238030C18F819793257617D324E76C90B
:102F65003A4F762A47765F1600197E210000CD116B
:102F7500155E2356EB11B668CD233A3A4F763C5F82
:102F85003A507693281938172A47761600197E2164
:102F95000000CD11155E2356EB11166CCD233A3A80
:102FA5004F764F3A4676815F3A507693281938170F
:102FB5002A47761600197E210000CD11155E23568D
:102FC500EB11766FCD233A3A4F763C4F3A467681F0
:102FD5005F3A507693D8C82A47761600197E2100A5
:102FE50000CD11155E2356EB11D672CD233AC93AA1
:102FF500FA63B7C2ED303AD913FE05C83E01320C6B
:103005003A21F43D1118003A0364FE20CA7B313A97
:103015001864473A1D6480F22130C620FE2038022C
:10302500D620CB3FCDE3383E00573A3A6482C612EC
:10303500F5573A39641E42835F060C3AC511CD53E4
:1030450039F157F5C608573A39641E42835F060CB5
:103055003AC511CD5339AF320C3AD13A4D64B72048
:1030650047FE02C83A7364FE42300E3A7264E603C4
:1030750020073A203CE60320053A2664B7C83A39CA
:10308500641E42835FD53A1864CB8721CD30CD23AA
:103095002856235EEBD119EB218C3F06083E02CD65
:1030A50053393E0132A637C9AF3218642A22642645
:1030B500003E26CD2E3947213A647E90FEDD38024A
:1030C50077C93E02324D64C90802080107000600AF
:1030D50004000200010000010002000301040204D3
:1030E5000404060407040803DD7E0AFEFDC82A87DA
:1030F50076ED5B4B76C5010C0009C1B7ED52D811D1
:103105009600CDDC38D03E0C3265317D21000022A1
:103115005E31D60C3010ED446F2600225E313E0C38
:1031250095C8326531AF3262312A8B76ED5B4976CF
:10313500C5010C0009C1B7ED52D8113C00CDDC38F2
:10314500D03A2D3085D60C326331DD7EDDCB3F2183
:10315500F43D111800CDE3381100001911000006E7
:1031650000C5D5E5CD5139E1110C0019D1C17AC69B
:103175000857CD5139C921743FC32C300021813105
:103185007EB7C8352199761100003A2D3082570651
:1031950023CDC63921BC761100103A2D3082570651
:1031A50023CDC639C93AFA63B7C03E003A4976E637
:1031B50007322D3032B031C640D340C9214D6406A7
:1031C500047E23B7C810FA2A9D14F93E40D3403E29
:1031D500A73A3F76FE012066CD453A2133321105E7
:1031E500000610CDF1BF180ACD53BEFE12284F05BB
:1031F50020F62116571109013E05F50625CDD0BF4C
:1032050023141E09F13D20F2065ACD53BEFE1228A5
:103215002D0520F6110B0121CF573E03F5060CCDE8
:10322500D0BF23141E0BF13D20F2065A18BA2A2AE4
:103235002A2A20D5B3BCAEB321202A2A2A2A3EA7A2
:10324500D340CD453A110400CDFC093A3776FE034B
:10325500281B214768342167361110013E100E05E1
:10326500CDEE2B21CB3622C9363E02180821D636A3
:1032750022C9363E01F5214C36110A003E030E05E2
:10328500CDEE2B1EFF0E010604213F761C7E23B9D1
:1032950020FA0C7BCD7B361EFF10EECD7938CD8E16
:1032A50038CDFDBC21CC3622C936110400CDFC0930
:1032B500F13D20C13A3776FE03DA5E0C3A3F76FEE1
:1032C50001C2D80D213F683A3776FE032003216FEE
:1032D5000E11FF33010400EDB03A3776FE032129C4
:1032E50058280C3A367611050021AC0DCDE338117E
:1032F5002134010500EDB0CD453A06182146693661
:10330500002310FB212E69061836002310FB211718
:103315003411B6680605C57E23470E187E231213A1
:103325000D10F979B72806AF12130D20FBC110E671
:1033350021FE33110000AF0E06CDEE2B3A3776FE97
:1033450003281D3A3676B7C2BB331100032170340A
:103355000618CDF1BF11E668217034011800EDB0F3
:10336500CD8E38CDFDBCCD8E383EA7D340218834D7
:1033750016001E00D5CD7E38D11C7BE607C640D38E
:1033850040CB5B280CCDC4331E00147AFE31CA989D
:103395003318E1AF320D7921B033110A02060BCD96
:1033A500D0BFCD8E38CDFDBCC300010EA2AAAA6B3D
:1033B5002BEAAAA2AE06CD8E38CDFDBCC30001D541
:1033C500C5E521CE6811B668019000EDB0E13E1863
:1033D5004E91230600114669EDB0E547AFEB772323
:1033E50010FCCD453A11000021B668068F3E01322A
:1033F5000D79CDF1BFE1C1D1C9185F5F5F5F20BB1A
:10340500DD20D5B3BCAEB320B5D2C3DEC4B3202115
:10341500212118B1C5C0CA20B8D7BD205F5F5F5F45
:103425005F20C920C1ACDDCBDFB5DD07C620C5D81F
:10343500CFBCC017BBD7C5D920B8D7BDC920BEB230
:10344500CAA620B7C0B2BCC3B2CFBD062E2E2E2E43
:103455002E2E185448414E4B20594F5520464F5259
:1034650020504C4159494E47212121BBD7C5D92070
:10347500BAB0BDDABAB0C4DEC920BCDEADD8C2A6CA
:103485002E2E2E06BCD6B3C2B0D9102067383030E8
:10349500202F206738303028B6B22905205A4153ED
:1034A5004D07205653436F64650E20566973756149
:1034B5006C2053747564696F08205465726170617E
:1034C500640620CDDFB2DDC4052047494D500820F4
:1034D500424D503250474401200CBFC9CEB620BCE6
:1034E500DEBBB8C2B0D9062054494C455207205A14
:1034F5004950504552072052454354455201201327
:10350500BDCDDFBCACD9BBDDB8BD20B9B2BCAEB357
:10351500D8ACB809204D6172756869726F0B20438C
:103525006861726174536F6674092073656B696DA8
:103535006567750620D5D8B8DED00420BAB1D706A0
:10354500206368616D651220547769747465722013
:10355500A620D0C3B8DAC0B6C00D20202020202078
:10356500416E6420596F7501200120142020202010
:1035750020BEB2BBB82054532E534F4654202020B2
:10358500012001200120184C6574277320436861D0
:103595006C6C656E6765205265636F7264732E0F80
:1035A50020BDCBDFB0C4DEBAB0BD20323931390F12
:1035B5002020D3DDC4BCC3A8202020313838370FE4
:1035C50020CDB1CBDFDDCADFB0B8203135373501CD
:1035D50020012001201320202020BAC9B9DEB0D156
:1035E500C920BADDC3DDC220CA1720B9DEDDBCDEC5
:1035F500C2C420C5DDD720B6DDB9B220B1D8CFBE53
:10360500DD172020BAB3C2B320D9B0D9A620CFD3B5
:10361500AFC320B1DDBEDEDDC51720C4DED7B2CB1A
:10362500DEDDB8DE20A620BABADBB6DEB9CFBCAE89
:10363500B307202E2E2E2E2E2E0120012001200133
:103645002001200120012006DAB0BDB9AFB6042063
:103655003153540420324E44042033524404203460
:10366500544804202B203404202B203304202B2005
:103675003204202B2031D5C5B732B5362817F53A97
:10368500367621CE60110C00CDE338F13D110400F2
:10369500CDE338180D213F683A3776FE0320032124
:1036A5006F0E060451151E09D5CDF1BF2149683E9F
:1036B50000CD23287EE56F2600CDF438E146D13EC6
:1036C500059280C300007721ED381E0E0602CDF16C
:1036D500BFC1D1C90606C51A134F1A1347D5E5212F
:1036E50010403EFF3CB7ED4230FA08060CE1AF77DB
:1036F5002310FBE50806944F2164002204372100BE
:1037050000CD1F372A043711640019220437E177E9
:1037150023E510EAE1D1C110BDC9E5C53E94CD2E22
:10372500393C210000591600CDE3383E64CD2E39D1
:10373500B720013CC1E1C9CDA33828FB4721583743
:103745000EFF0C7E23FEFFC8B820F7217537060053
:10375500097EC902030405060708090A0B0C0D0EAC
:103765000F101112131415161729313239283AFF83
:10377500515745525459554153444647484A4B5A67
:10378500584356424E4D4C494F50FDFE3A4D64B795
:10379500C27E113A0364FE2028433A2664B72042CC
:1037A5003E00B73E0032A63720383A6564473EFFF3
:1037B50090473E14212A38E570233D20FBE11E0089
:1037C5003E04835F56233E80D31815000020FB5628
:1037D500AFD318150020FC1D20EAC37E11213E3809
:1037E50018DC21543818D700CD1238C8FE1EC02168
:1037F5001F38060B110702CDF1BFCD7438DB1F173B
:10380500DA9814CD123828F5FE1E20F1C9CD53BE25
:1038150021EC37477EB8C87877C92D2D2050415502
:053825005345202D2D8C
:10383E00A046F078FA6FEE6FB487E6A046F078FAFD
:10384E006FEE6FB487E6DEF4D2FAD2F0C8E6BED2DF
:10385E00B4DEF4D2FAD2F0C8E6BED2B4F53E041805
:10386E0022F53E0C181DF53E251818F53EC8181306
:10387E00F5CD53BEFE51CA9814B720EB3EBC1803CB
:10388E00F53EFF11000013000000000000BA2802F0
:10389E0018F4F1C900E5C5D5CD53BE21A238B7281D
:1038AE000747BE3E0028087877FE51CA9814B7D154
:1038BE00C1E1C9E5D5210000545D29291911475DE3
:1038CE001922C4387CD1E1C9CDC138E603C9B7EDA0
:1038DE0052F519F1C9B7C8193D20FCC90000000006
:1038EE0000303030303011EA38011027CD45390123
:1038FE00E803CD4539016400CD4539010A00CD45B7
:10390E00397D12060511EA381AFE0028021808132E
:10391E0010F6060111EE381A0E3081121310F8C986
:10392E00C5D54F0600AF110000ED42380513280330
:10393E0018F7097BD1C1C9AFED4238033C18F9091C
:10394E001213C93E0132EF397832D0397B327C39CD
:10395E007AE63F160014D60830FB154F7A32CC3972
:10396E0079C6083286394F3E089132B1393E00325F
:10397E00CE3911FF3AE5C50E007E0879B728070843
:10398E00CB270D20FB080812231310EBD921FF3A89
:10399E00CDCB39D9EB11900019C1118F3B21CC3908
:1039AE0034E10E007ECB3F0D20FB12231310F3D912
:1039BE00218F3BCDCB39D9C9AFCD5339C916001E96
:1039CE000006000E007AE607F6B0D3407BE60FD372
:1039DE00407B1F1F1F1FE60FF610D3403EE0D34063
:1039EE003E00B7280DFE032825DB41DB41FEFF38E4
:1039FE00010CAE231CD34110E73EEED3403E00B780
:103A0E00C879FE093E0138023E0232C511C9DB41BA
:103A1E00DB41B618DEE5F50160037ED95FD9237E62
:103A2E00D9577BD912130BD915D920F823AFB02053
:103A3E00E9B120E6F1E1C9E5D5C521166C360011D4
:103A4E00176C019000EDB01100000608C50690211C
:103A5E00166CCDD0BF141E00C110F1AF320D79C15E
:103A6E00D1E1C921B66811B76836FF017F0DEDB0FF
:103A7E00CDC33AAF21497677114A76010600EDB0F3
:103A8E00320C3A21186411196477012200EDB0AF9F
:103A9E0021517677115276012700EDB0213B6477E4
:103AAE00113C64011100EDB021797677117A76011F
:103ABE000300EDB0C9AF21997677119A76014500D2
:103ACE00EDB021E73A119976010600EDB021ED3AFD
:103ADE0011A776010600EDB0C9FEFE1212120CFE01
:103AEE00FE808080800202FEFE0202FEFE12121294
:013AFE0012B5
:103C1F000000F33A203C321F3CAFD3113E08D311C2
:103C2F00CDAD8ADB10E6F047AFD3113E10D311CDE7
:103C3F00AD8ADB10E603B047AFD3113E04D311CDED
:103C4F00AD8ADB101717E60CB0FBCD603C32203C81
:103C5F00C94F0600F3AFD3113E20D311CDAD8ADB90
:103C6F0010E6102802CBF0AFD3113E40D311CDADEB
:103C7F008ADB10CB5F2802CBC0CB6F2802CBC8AF3B
:103C8F00D3113E80D311CDAD8ADB10E6102802CBC5
:103C9F00F878B1FBC900000000000000081C3E7F4F
:103CAF0000007F3E1C0800000000000040E0E0E044
:103CBF00E0E0E0F0FCFFFFEFE3E0E6490906C0F8C3
:103CCF00FF7F7F73707070F0F0F0F0707030300025
:103CDF000000000080E0F8FC7E1E1E0E0040E0E0B9
:103CEF00E0E0E0F8FCFEEEE6E0F0F8FEFEEEE6E0E7
:103CFF00E04000607070F0F8FCFE7E7670707030FF
:103D0F000000000000000080E0F8FC7C1C000000B8
:103D1F000000C0F0FCFC3C0C00E0F8FEFF1F078128
:103D2F00F0FCFC7C0C0004070301000080C0F0FCD9
:103D3F00FF3F0F33383038E0F87800C0F8FE7F1FB0
:103D4F001F1D1C1C1C1C1C08000002070381C0F057
:103D5F00FC3F1F1F1B1818191F0E0E0E0EEEFEFF35
:103D6F00FF7F0F0E0E0E7E760070C0F0F040C0F891
:103D7F00FE7F1F1F1D1C1C1C1C1C0C010101014080
:103D8F00707C7F3F0F030000000101010100000064
:103D9F0000004070787E3F1F0701000000060606F6
:103DAF000703717C3F1F474140606060607070780F
:103DBF00785C7C5E6E5F7F5F7F5D7C5C7C5C7C5C37
:103DCF007C5C7C5C7C5C7F5F7F5F7C5C7C5C7C5C18
:103DDF007C5C7C4E47737C3F1F0701000000000096
:103DEF00000000000000000060B0F0F0B0600000C4
:103DFF0000000000060F0E0D0F060000000000006F
:103E0F0000F0F878D830000000000000060F0A0D0F
:103E1F00070600000000008080C060F8E8F8B0E0FE
:103E2F000000000107060D0E0301000000000080D6
:103E3F00E060C040C0A0E0C000000003060702031E
:103E4F0003030301000000C0E0E040C0A0E0C00099
:103E5F00000000030706030305070300000000C06E
:103E6F0060E040C0C0C0C080000000010706030230
:103E7F000305070300000080E060B070C080000001
:103E8F00000000010103061F171F0D0700000000AF
:103E9F0060F050B0E060000000000000000F1F1E37
:103EAF001B0C00000000000060F0B070F06000001C
:103EBF0000000000060D0F0F0D06000000000000AF
:103ECF0060E0B050F0600000000000000C1B1E1FEF
:103EDF000F0000000000000080C070B060E08000A4
:103EEF000000070D1F171F0603010100000080C00F
:103EFF00C0C0C040E060C00000000307050302031C
:103F0F0006070100000000C0E0A0C0C060E0C000D4
:103F1F000000000307050302070703000000C0E0CD
:103F2F00A0C040C060E08000000001030303030253
:103F3F00070603000000E0B0F8E8F860C0808000DA
:103F4F000000000001030E0D060701000000000035
:103F5F0030D878F8F00000000000000006070D0AC6
:103F6F000F06000000E21428C483445A8464487486
:103F7F0082CC3130282330365D16203318A5480007
:103F8F00942A80254810141E070B14140B071E14B7
:103F9F00100808087FFF0000001E1E1F0040607FF2
:103FAF006760408005FF1D0003FF010041FF010016
:103FBF0003FF20800AFF1D0003FF0100120801000C
:103FCF001B0801000F40010002FF010003FF2080CA
:103FDF000AFF1D0003FF010041FF010003FF2080C6
:103FEF000AFF1D0003FF0100030401001C04010070
:103FFF0020FF010003FF20800AFF1D0003FF0100C7
:10400F0041FF010003FF20800AFF1D0003FF010095
:10401F00070801003202010006FF010003FF2080A4
:10402F00058005FF01F93E79047F013905190399D0
:10403F0002893D8005FF273F011F010F01870347BD
:10404F000243032302210311031002080504050292
:10405F00050102003E8005FF217F013F010F010393
:10406F00018101400130010C010601010100152001
:10407F0001002D0201001C8005FF1E7F01070101B9
:10408F00010001F0010E0102010101006180010038
:10409F00038005FF1E0003FE010301002F04010032
:1040AF00388005FF1D03010002FC01030100070812
:1040BF00010038FC0102020101F125893A99021928
:1040CF0003390579047F01F941FF01800500338031
:1040DF000100070102020504050805100211032162
:1040EF000323024303470287030F011F013F01FF11
:1040FF002A8005004E2001000E010106010C01303F
:10410F00014001810103010F013F017F01FF248065
:10411F0005000904010058010102010E01F0010020
:10412F0001010107017F01FF2180050037200100F8
:10413F002D0301FE010003FF218005F11FE1018125
:10414F000102010401180160018001003604010021
:10415F00090301FC0100020301FF2080058F1F8767
:10416F00018101400120011801060101010040C039
:10417F00013F010002C001FF208005002040010027
:10418F002B02010018C0017F010003FF21800500F1
:10419F00628001400170010F0100018001E001FE0A
:1041AF0001FF2180050008200100548001600130CB
:1041BF00010C0102018101C001F001FC01FE01FFB0
:1041CF00248005003B8002400520042201100508D1
:1041DF000288038403C402C203E202E103F001F880
:1041EF0001FC01FF2A8005913A990298039C059ED4
:1041FF0004FE019F41FF0180058005FF1DC00100E6
:10420F00023F01C0010040010106011801200140D9
:10421F0001810187018F228005FF1E00037F01C0EE
:10422F00010013100100548005FF1EFE01E0018004
:10423F000100010F01700140018001004D080100D4
:10424F00178005FF21FE01FC01F001C00181010271
:10425F00010C01300160018001002B10010034803E
:10426F0005FF27FC01F801F001E103E202C203C4DC
:10427F000284038803080210052005400580020010
:10428F0035010100088005FF019F3E9E04FE019C41
:10429F000598039902913D89488F018947001220A3
:1042AF000100211001004F400100ED0101006F08D6
:1042BF00010039200100239148F10191478105F94F
:1042CF007679063906190689028F018005FF547F1A
:1042DF00043F041F048F0387024702430323012176
:1042EF0004110110040805040502050105000380EF
:1042FF0005FF477F023F011F020F0187014701435F
:10430F00012101110110010803040202030105003C
:10431F0025040100058005FF3B7F023F011F028F2F
:10432F000187014701230121011101100108010437
:10433F0002020101020015100100288005FF337FE2
:10434F00013F010F010701830161011101080204FF
:10435F00010202010100402001000A8005FF2C7FAD
:10436F00013F011F010F010301C101200110010CC9
:10437F00010201010100154001002640010017FF55
:10438F0001898F001480010043800100FF00048029
:10439F000100D30601001D04010057080100298FF9
:1043AF00018902190639067906F97681050003019C
:1043BF00050205040508051004110121042301431A
:1043CF0003470287028F031F043F047F04FF5480BB
:1043DF00050005040100250105020304020803106E
:1043EF0001110121014301470187010F011F023F05
:1043FF00017F02FF4780050028100100150102020E
:10440F000104020801100111012101230147018755
:10441F00018F011F023F017F02FF3B8005000A2031
:10442F000100400101020204010802110161018330
:10443F000107010F013F017F01FF33800500174086
:10444F0001002640010015010102010C011001209D
:10445F0001C10103010F011F013F017F01FF2C80EB
:10446F00058005FF273F011F0107010301C101203F
:10447F000110010C010201010100448002400220E1
:10448F00021003080288038402C403C201E20280FF
:10449F0005FF217F011F010F01070181014001303D
:1044AF0001080106010101004080014001200110B7
:1044BF0001080104018201C201C101E101E001F023
:1044CF0002F801FC02FE02FF0E8005FF1F0F010123
:1044DF00010002F0010E010101001080010030C047
:1044EF000120011801060101018001E001F001FC2A
:1044FF0001FF1B8005FF1D07010002C001380107E6
:10450F0001002D02010013E0011C0103010002F064
:10451F0001FC01FF208005FF1D0003FF010042FE8B
:10452F000101010002C001FF238005FF1D0003FFF1
:10453F0001000B10010035FC0103010002F001FF27
:10454F00243E01A28E22010001FF8E0002FF8E0089
:10455F0002FF8E0002FF8E00027F8E0001E202C278
:10456F0001C4038402880308021003200240028062
:10457F0002000F40010034010102010C0110016023
:10458F00018101030107011F017F01FF278005FF43
:10459F000EFE02FC02F802F001E001C101820104EB
:1045AF0001080110012001400180010041010106B5
:1045BF00013801C001000103011F01FF2580050023
:1045CF0001FE010201FA100201FE010001FF03FCCE
:1045DF0001F801E0010001010106013801C00100ED
:1045EF002C0101000F8001000401010E01F00100F8
:1045FF000207017F01FF2280050001FF010001FF7B
:10460F00100001FF010001FF07FC01F00100020390
:10461F00011C01E00100411F01E001000203013F05
:10462F0001FF2080050001FF010001FF100001FFC5
:10463F00010001FF0AC00100020101FE01000D206F
:10464F000100330301FC010003FF20800500017FFF
:10465F000140015F1040017F010001FF0BF00100DD
:10466F00020301FC0100341001000CFF010003FFE5
:10467F00208005FF4200013E09BE44FF42000AFFB1
:10468F0086000AFF86000AFF397F011F010F01070D
:10469F000203030103FF42000AFF327F013F010FB4
:1046AF0001070103010101000CFF42000AFF2B7FEC
:1046BF00013F010F0107010301010100138001BE3A
:1046CF003882568001FF197F033F031F030F030733
:1046DF0002030301030063FF027F033F031F030F66
:1046EF000307030303010200FF00B88003C002E0C9
:1046FF0003F002F802FC03FE02FF0B01014155011A
:10470F00018F031F043F057F04FF80000301040294
:10471F0005040408051104230547048F051F043FF2
:10472F00057F04FF5C00270104020504040805113E
:10473F0004230547048F02FF018F021F043F057FEB
:10474F0004FF38004B01040205040408051104237B
:10475F000547048F051F043F057F04FF14006F01F9
:10476F00040205040408051104230547048F02F110
:10477F0003E204C4058804100520044005800400EA
:10478F006EFFFFFFFFFF428F031F043F057F04FFF4
:10479F0080000301040205040408051104230547E2
:1047AF00048F051F043F057F04FF5CFF42000AFFD3
:1047BF00247F013F011F01070103010101001AFFBF
:1047CF0042000AFF1D7F013F011F010F010301017D
:1047DF00010021FF42000AFF167F013F011F010F59
:1047EF0001030101010026C001E001FF42000AFFA1
:1047FF00111F010F010701010100278001E001F0E6
:10480F0001F801FE01FF45000AFF110026C001E07B
:10481F0001F801FC01FF4B000AFF1100208001E0AD
:10482F0001F001FC01FE01FF0E000A8002C003E04F
:10483F0002F002F803FC02FE03FF1E0001FE55000A
:10484F00048001C001F001F801FE01FF310001FFFA
:10485F00550001F801FC01FF370001FF550001FF72
:10486F00390001FF550001FF390001FF550001FF1D
:10487F003900017F550001FF15FE04FC05F804F116
:10488F0005E204C4058804100520044005800400D7
:10489F004AFF39FE04FC05F804F102FF01F102E2C0
:1048AF0004C405880410052004400580040026FF79
:1048BF005DFE04FC05F804F105E204C4058804104C
:1048CF00052004400580040002FF81FE04FC05F86A
:1048DF0004F102FFFFFF2100270104020504040871
:1048EF00051104230547048F051F03FF013F057FB3
:1048FF0004FF38004B0104020504040805110423CA
:10490F000547048F051F043F057F04FF14006F0147
:10491F00040205040408051104230547048F02F15E
:10492F0003E204C405880410052004400580040038
:10493F006EFF15FE04FC05F804F105E204C40588BA
:10494F00041005200440058004004AFF39FE04FCD2
:10495F0005F804F105E203FE01C4058804100520E3
:10496F0004400580040026FFFFFF218F031F043F33
:10497F00057F04FF800003010402050404080511EC
:10498F0004230547048F051F043F057F04FF5C00C8
:10499F002701040205040408051104230547048FA9
:1049AF0004FF011F043F057F04FF38004B01040281
:1049BF0005040408051104230547048F051F043F50
:1049CF00057F04FF14FF42000AFF110020FF55006E
:1049DF000AFF110020FF55000AFF110020FF5500AC
:1049EF000AFF110020FF55000AFF110020FF55009C
:1049FF000AFF110020FF13FF5DFE04FC05F804F110
:104A0F0005E204C405880410052004400580040055
:104A1F0002FF81FE04FC05F804F102FFFFFFFFFF18
:104A2F0042006F0104020504040805110423054721
:104A3F00048F02F103E204C405880410052004402A
:104A4F00058004006EFF15FE04FC05F804F105E275
:104A5F0004C40588041005200440058004004AFFA3
:104A6F0039FE04FC05F804F104FF01E204C40588D3
:104A7F000410052004400580040026FF5DFE04FCA1
:104A8F0005F804F105E204C405880410052004406C
:104A9F000580040002FF81FE04FC05F804F102000A
:104AAF0001FE3F0001FF01000AFF11002001010775
:104ABF00010F013F017F01FF0E0001FF3F0001FFCA
:104ACF0001000AFF110026030107011F013F01FF2B
:104ADF00090001FF3F0001FF01000AFF11F801F07B
:104AEF0001E00180010027010107010F011F017F74
:104AFF0001FF030001FF3F0001FF01000AFF16FE47
:104B0F0001FC01F801F001C001800100260301073B
:104B1F00010001FF3F0001FF01000AFF1DFE01FC24
:104B2F0001F801F001C001800100227F3F0001FF69
:104B3F0001000AFF24FE01FC01F801E001C0018021
:104B4F0001001AFFFFFFB11F013F01FF8E0003019C
:104B5F000103010F011F017F01FF88000A010203FA
:104B6F000307020F021F033F027F03FF758005FF3C
:104B7F001DFE01F801F001C101860108013001405D
:104B8F00018001003C01010601180160018101074C
:104B9F00011F013F01FF218005FF22FE01FC01F0F3
:104BAF0001E001C301040118012001C0010013201D
:104BBF00010027010102010C013001C001030107AF
:104BCF00011F013F01FF1C8005FF28FE01F801F0C6
:104BDF0001C10186010801100160018001003A0343
:104BEF00010401180160018001030107011F017F0A
:104BFF0001FF178005FF2DFE01FC01F001E001838D
:104C0F000104011801200140018001002904010065
:104C1F000E01010601080210022102430287020F52
:104C2F00021F023F027F02FF088005FF33FC01F8DD
:104C3F0001E001C10102010C0110016001800100BE
:104C4F003F01020203040208021001110121012396
:104C5F00014301470187018005FF38FE01FC01F088
:104C6F0001E00183010401080130014001800100CE
:104C7F000B0201003308010009FF42000AFF2BFE5F
:104C8F0001FC01F001E001C00180010013FF4200AF
:104C9F000AFF32FE01FC01F001E001C001800100BA
:104CAF000CFF42000AFF39FE01F801F001E002C0DB
:104CBF00038003FF42000AFF448F031F043F057F59
:104CCF0004FF32000AFF4400030104020504040834
:104CDF00051104230547048F051F043F057F04FFBB
:104CEF000E00017C097D44001D0103030207030F21
:104CFF00021F023F037F02FF0B8001BE55800100A0
:104D0F00FF0021FF02FE03FC03F803F003E003C0E2
:104D1F00038002007AFF19FE03FC03F803F003E09F
:104D2F0002C0038003006301017D8E01018005FF36
:104D3F003EFC01F801E001E101C201C402840188D7
:104D4F00030801100320034003800300358005FF93
:104D5F004CFE03FC03F804F103E101E202C201C4BB
:104D6F0002840188031003200440038003000F20F6
:104D7F0001000B8005FF66FE03FC04F803F103E25C
:104D8F0003C201C4038803100320034004800300FF
:104D9F00018005FF80FE03FC04F803F1014005FFCD
:104DAF008B4005FF8B89488F018947002CFF01003D
:104DBF0004FF01003920010050FF010004FF010032
:104DCF00158006006FFF010004FF0100150F0100A1
:104DDF0074FF010004FF01005A04010003912CF13C
:104DEF00010104FE01000804010023FE010104F18A
:104DFF0001912C89488F018947002E4001002FFF18
:104E0F00010004FF01006F80060015FF010004FF81
:104E1F0001003A080100390F010015FF010004FFDE
:104E2F0001008AFF010004FF01002C912CF1010108
:104E3F0004FE0100088001001C02010006FE0101B2
:104E4F0004F101912CFD2B0101FF010004FF010072
:104E5F000680010025FF010004FF010101FD2BFF6A
:104E6F002B0001FF010004FF01002420010007FFB8
:104E7F00010004FF010001FF560001FF010004FFC4
:104E8F0001002CFF010004FF010001FF560001FF8C
:104E9F00010004FF0100068001000F02010015FF51
:104EAF00010004FF010001FF560001FF010004FF94
:104EBF0001002CFF010004FF010001FF2BBF2B801D
:104ECF0001FF010004FF01002602010005FF0100A0
:104EDF0004FF018001BF2B892C8F0180047F01000B
:104EEF002C7F0180048F01892C005EFF010004FFDD
:104EFF000100360401003DF0010015FF010004FF21
:104F0F0001006F01060015FF010004FF01005D04A1
:104F1F0001002CFF010004FF01002C9148F10191C9
:104F2F0047FF018005FF0181018088FF018005FF98
:104F3F00587F013F021F020F0207050308010900F6
:104F4F0015FF018005FF4A7F013F021F020F020775
:104F5F0001030201020034FF018005FF3C7F013F86
:104F6F00021F020F020701030201020042FF01802C
:104F7F0005FF387F011F0107010101004EFF01806E
:104F8F0005FF343F010F010701010100348002C00A
:104F9F0002E003F002F802FC03FE03FF0D89488FC5
:104FAF0001894700E601010024400100340101009E
:104FBF00A808010056F161F201E206C405840188D8
:104FCF0005100520064005800501010007FF01803F
:104FDF0005FF303F010F010301002F8001C001E0E9
:104FEF0002F001F801FC01FE02FF1A8005FF0180AB
:104FFF0005FF2E7F01002AC001E001F002F801FC3D
:10500F0001FE01FF258005FF018005FF2E002BFF0C
:10501F002C8005FF018005FF2D1F01002BFF2C8029
:10502F0005FF018005FF2D002BFF2D8005FF01805F
:10503F0005FF2C0301002BFF2D8005FF78FE05FCDB
:10504F0006F805F106E202FFFFFFFFFFD28005FF22
:10505F001DFC01F801E001800103010C013001C0CA
:10506F0001003E01010601080130014001810107E5
:10507F00010F013F017F01FF19800AFF21FE01F897
:10508F0001F001C00101010601180160018001005A
:10509F003E01010601080130014001810103010FAA
:1050AF00011F017F01FF14800AFF26FC01F001E0C0
:1050BF0001800103010C01300140018001003E011C
:1050CF000102010C01100160018001030107011FA2
:1050DF00013F01FF0F800AFF2AFE01F801F001E0F6
:1050EF0001E301E2188201020104011801E001004D
:1050FF001E0101000803010C011001600180010372
:10510F000107011F013F01FF0A800AFF48FE01F856
:10511F0001E001C0010101060118016001800100D9
:10512F00270301040118012001C001010107010F2C
:10513F00013F017F01FF04800AFF4DFC01F001C018
:10514F0001000103010C013001C00100280301041B
:10515F000118012001C001010103010F01FF0180AE
:10516F00058005FF040729002CFF328005FF04008E
:10517F00368008FF010016FF328005FF04000FFF85
:10518F00010106003FFF328005FF040055FF32800A
:10519F0005FF040055FF328005FF04001D7E03004C
:1051AF00017E1800017E1C00017E1800017E160092
:1051BF00018005FF1DF801800100010701780180C2
:1051CF0001003F0701F80100020701FF1F800AFFDE
:1051DF001FF0010002070178018001000D2001007E
:1051EF003001013E01C00100023F01FF1D800AFF97
:1051FF0021E0010002070178018001002B0401006A
:10520F00120F01F00100020701FF1C800AFF22FEAE
:10521F0001E0010002070178018001003D01017EDC
:10522F0001800100023F01FF1A800AFF24FC01C028
:10523F00010002070178018001001B10010021030A
:10524F00010401080110012101430187010F011F12
:10525F00013F017F01FF13800AFF26F80180010043
:10526F0002070178018001004201010201040108D7
:10527F0001100111012301430187010F011F013F9C
:10528F00017F01FF0A80058005FF50FE01FC01F040
:10529F0001C001010106011801600180010019011F
:1052AF0001000FFF010002FF01800AFF55FC01F80A
:1052BF0001E001800103010C013001400180010078
:1052CF00243F01210247014801880190038005FF17
:1052DF0059FE01F801F001C001010106011801207A
:1052EF0001C0010004080100248005FF5EFC01F0ED
:1052FF0001E001800103010C011001600180010038
:10530F00248005FF63FE01F801F001E00183010431
:10531F000118012001C001000D8004000E8005FF5F
:10532F0069FE01F801F001F102E203E401C403C8D0
:10533F00028801900210118005FF010002FF010099
:10534F001DFF010003FF618005900388014801479D
:10535F000121023F01001DFF010003FF61800500D5
:10536F001F01010006FF010003FF6180050024807B
:10537F000160011F0100028001FF618005000940EB
:10538F00010015C0012001180104018301E001F0A3
:10539F0001F801FE01FF638005101190028801C81A
:1053AF0002C403E401E203F102F001F801FE01FF80
:1053BF006980058005FF28FC01F801F001E001E399
:1053CF0001C40188011002200140018001002C0856
:1053DF00010017010102010401080110012101431D
:1053EF0001470587018F068005FF30FE01FC01F89C
:1053FF0001F001E101C201C4018401080110012083
:10540F000140018001004E8005FF39FE01FC01F8CB
:10541F0001F001E101C101C2018401080110012065
:10542F000140028001000B400100388005FF42FE61
:10543F0001FC01F801F001E001C1018201840108C2
:10544F00011002200140018002003A8005FF4BFE4F
:10545F0001FC01F802F002F102E102E202C202C411
:10546F000284028802080210042004400480040011
:10547F0009080100108005FF63FE04FC04F804F026
:10548F0002F11A0001FE8E0002FF8E0002FF8E0055
:10549F0002FF8E0002FF8E00027F8E00018005FF4B
:1054AF001D0003FF01004101010202040109011364
:1054BF000227014F029F013F017F02FF0E0007FFEE
:1054CF0001800AFF1D0003FF01004C0102020104CD
:1054DF00010902130127024F019F01BF013F017F05
:1054EF0001FF030007FF01800AFF1D0003FF0100FA
:1054FF0058010102010402FF010007FF01800AFFAA
:10550F001D0003FF01005CFF010007FF01800AFF80
:10551F001D0003FF01003BF0011002F0011002F02B
:10552F0001000C3001100730010005FF010007FFDB
:10553F0001800AFF1D0003FF01003BFF010002FF76
:10554F00010002FF01001AFF010007FF0180058023
:10555F0005FF1D0003FF01003BFF010002FF0100DB
:10556F0002FF01000CC0014007C0010005FF010050
:10557F0007FF01800AFF1D0003FF011A0116011A20
:10558F000116011A0116011A0116011A0116011A44
:10559F000116011A0116011A0116011A0116011A34
:1055AF000116011A0116011A0116011A0116011A24
:1055BF000116011A0116011A0116011A0116011A14
:1055CF000116011A0116011A0116011A0116011A04
:1055DF000116011A0116011A0116011A0116011AF4
:1055EF000116011A0116011A0116011A0116011AE4
:1055FF0001FF010002FF010002FF01001AFF01007D
:10560F0007FF01800AFF1D0003FF01003BFF0100A0
:10561F0002FF010002FF01001AFF010007FF0180D6
:10562F000AFF1D0003FF01003BFF010002FF010005
:10563F0002FF01000C0301010703010005FF010038
:10564F0007FF01800AFF1D0003FF01003BFF010060
:10565F0002FF010002FF01001AFF010007FF018096
:10566F000AFF1D0003FF01003BFF018002FF0180C5
:10567F0002FF01000C0C0104070C010005FF0100E3
:10568F0007FF0180058005FF1D0003FF01005CFF80
:10569F00010007FF01800AFF1D0003FF01005CFFEF
:1056AF00010007FF01800AFF1D0003FF01005CFFDF
:1056BF00010007FF01800AFF1D0003FF01005CFFCF
:1056CF00010007FF01800AFF1D0003FF0100518049
:1056DF0002400220029002C802E401FF010007FF0E
:1056EF0001800AFF1D0003FF0100428001400220DC
:1056FF00029002C802E402F202F902FC02FE02FF6B
:10570F00080007FF018005008080E0E0E0E0E00096
:10571F000000000000FFFDFF282828EFFDFF00001C
:10572F000000000000000000000000000181F11FD8
:10573F000808087FC000000000000FFFFFFFFFFFF9
:10574F00FFFF0F000000000000FC1C1C1CFC303091
:10575F0020001F38F800E00000F83F1C00C0404058
:10576F007F7F7FC17F7F7F4040C00080E078DFEB8D
:10577F00D5AB5FFEF000F010101F503F30B05F1040
:10578F0010101F00000000011F0000000000FF00AC
:10579F000307FF7AEDBADFFF070300FF00000004E5
:1057AF0006050404000000000000000000000000D7
:1057BF0000000003020202479796976A030202FE57
:1057CF0000000000F8282828E838000000C07CFFFF
:1057DF00FFFFFFFFFFFF7CC0C041417F7F7FC17F85
:1057EF007F7F41410E58B7B020A6B5BCC3B8C0DE0D
:1057FF00BBB2210C323032302054532E534F46540B
:10580F0010BEAFC3A8DDB8DE2020CCD8B0BFB3BA6E
:10581F00B315BDCCDFD8DDC42020C0B2B7ADB320E7
:10582F0020B5CCDFBCAEDDFFFF0E300A0800010152
:10583F00010101010203040404040404050607071F
:10584F00070707070608090A0B0C0707060D0E0FB7
:10585F001011120706131407071516171806191A31
:10586F0007070707071B1C1D17170102071E111239
:10587F0007070705070715161717171807A2002E92
:10588F0000B10073000001000000000000000001E3
:10589F0001000000000000000002010000000000F5
:1058AF0000000003010000000000000000040100E0
:1058BF0000000000000000051D000000000500E0D2
:1058CF0001050000007B0403007B0403000500DDDD
:1058DF0001900036004C001A01DC0036007D00619B
:1058EF00005901360097020A00590140009C0250EE
:1058FF0000F5034000110020008B0060000500F050
:10590F00008200900009009000D002900025013025
:10591F00006100B40007003C005901C0005700307F
:10592F00006003C00090003300F003C0000500309A
:10593F00002001F0002001300060031D011B013623
:10594F0000B0012001B0013300D20050010A00293C
:10595F00005901500157000700EB03530190008DD0
:10596F0000D2007901DE000400D2007D01FE0103A8
:10597F0000B001800120010600B0018601B0012DA9
:10598F00006003900116002000B001DD013B02030F
:10599F00000000B001900030000000DD0180041411
:1059AF000006016700F0001B00300007010000D364
:1059BF00008B0015000D010000E8008B0015000E94
:1059CF00010000BE008B00150008044C03C000143A
:1059DF00006000B001900016006000A001B301103C
:1059EF00002A00D20080011000600009046003F358
:1059FF000012002A009A01900016003000B001B387
:105A0F00010F002A00C000500112009000802833BF
:105A1F00007200FF49004300B96F002400B9BC00B9
:105A2F001700ECF7001500EC44010A00ECF9010A2D
:105A3F0000ECB8030A00ECFE032200B91B044F0070
:105A4F00B931049600EC3604D500781604F90064D9
:105A5F00E2030E018CA7030F01EC61030701EC7742
:105A6F0002CB00ECA3019F00EC5101A000782601AE
:105A7F00B000820101DD0082FE0014018213013AA1
:105A8F00017D3C015A01B98F016301ECEE015A010E
:105A9F00EC93025701EC26035901B46B03660164C2
:105AAF008A038101508603AC01507503C4019641EE
:105ABF0003CD01ECDF02CC01ECB001BB01EC7400B3
:105ACF007101EC5A005701C846002C01C83A000179
:105ADF0001EC3200BC00FF0F380A06000100020083
:105AEF00000304030403030506020403030703046E
:105AFF00040303070304040303080900000A0B0C43
:105B0F000D04070E0F1004040704071112041303EA
:105B1F000714150416001702012E0011017300005F
:105B2F000100000000000000000101000000000063
:105B3F00000000020100000000000000000301004F
:105B4F000000000000000004010000000000000041
:105B5F0000051F000000000500E00105000000B86F
:105B6F00006300BD00000005002900C20000009E78
:105B7F000204000E02040052012C00F3002C002D31
:105B8F0000CB0020012C00BD00C700140230004CD8
:105B9F0001C300600063005D000100EE00670005B7
:105BAF000090008B009000630067008200F00008F7
:105BBF000008005B03F3000500ED008200F80013FE
:105BCF000088009500F800010059006100140107DA
:105BDF00003C0020011D019500C3003B021D010583
:105BEF000033001B01200105005F00D002300105CA
:105BFF00007F00D5023001110020003B02500195BB
:105C0F00005F009500510127002E00F4005101277D
:105C1F00002E008A0080010B0001008B0081010A19
:105C2F00003B00B900A901670007004002AF0190D7
:105C3F000004001B01B001050030004002DD011B14
:105C4F000103000000E10160030C00060167005032
:105C5F00011B0030000701000030018B0015000D03
:105C6F0001000045018B0015000E0100001B018B88
:105C7F000015000A02DD01D90037001A00B5011D19
:105C8F0001860016000B023B02F3001B002A009A4C
:105C9F0001F3001B002A000C01B501F30086002A56
:105CAF0000802B2E00DE00FF2F00C100FF32009C72
:105CBF0000FF38008C00A567007D00928C007400F7
:105CCF00FFC1006E0088D2002F00AFEE00160091CA
:105CDF0024010900FF76010800FFBA010800FFE860
:105CEF00011F0088FC014500FF02026F00FFF20157
:105CFF00F300FDF2012101FCF3016B01FF08029A91
:105D0F0001AF3102C001A77102C401FFB302C50187
:105D1F00FFEA02BF01B60B03AF01B519038301BF41
:105D2F0013035B01D702032C01BFD5020D01B68807
:105D3F00020201B43A02FE00FF7101FA00FF2B01CB
:105D4F00FA00FFF2000F019BD8003001B4D5005EBE
:105D5F000188D500820150A7009B0132A200B70134
:105D6F00328C00C501326B00AD01FF52007801FF8C
:105D7F0043005001FF3C001C01FF124007050103C7
:105D8F0002060600010406060700010302080005CB
:105D9F0002000905030400000606060005030303BD
:105DAF000472002E0081007300000100000000004B
:105DBF0000000001010000000000000000020100CF
:105DCF0000000000000000030100000000000000C0
:105DDF000004010000000000000000051600000094
:105DEF00000500990005000000CB020300AB010382
:105DFF00002501600090002D00900004008B003101
:105E0F000005000200950031008B0002008B00336B
:105E1F00000A00BA0020015D008B000300820060C1
:105E2F000009008D001B0160000500600025016066
:105E3F0000860003002001630005005A00CB0263B7
:105E4F00000500ED006100840007003C00B0018DEB
:105E5F0000960006003B0293000B00900000009D8F
:105E6F00000500B0002501BD008B0006002001C019
:105E7F0000050003008200ED00B90103008B00F064
:105E8F0000B001330000004D01CB02140006016782
:105E9F0000C0001B0030000701000099008B0015A7
:105EAF00000D010000AE008B0015000E01000084F4
:105EBF00008B0015000F0320012E001F000400B0FF
:105ECF0001BE001F0004008E018E0022000400801E
:105EDF00212D004A00FF2D002900FF5B001000A5B7
:105EEF0090000C00B4CF000B00BE2F010B006446D6
:105EFF00012A00502E0140006E0401410091EA007A
:105F0F004D00A5CF008400BECF00B000FFED00CB49
:105F1F00009B3601D000FF7201D8006E9A01D800A5
:105F2F0064D601BC005ABF019D008C8C01A4008A6D
:105F3F0072018A005A81016D006496016A00FF4B5D
:105F4F00026900BE7A028800A09102EB00FF88026E
:105F5F001901C85D023101BE04023601FF72003A19
:105F6F0001FF50003A01FF3E001401A52C00D7009D
:105F7F00FF2B008C00FF3131313131313131313173
:105F8F0031313131313131313131313131313131F2
:105F9F00313131313233343536363738393A3B3B9C
:105FAF003C3D3E3F404041424344454546474849BA
:105FBF004A4A4B4C4D4E4F505051515252535354DD
:105FCF0054555556565757585859595A5A5B5B5C42
:105FDF005C5D5D5D5D5D5D5D5D5D5D5D5D5E5E5EE0
:105FEF005E5E5E5E5E5E5E5E5F5F5F5F5F5F5F5FBA
:105FFF005F5F5F605F5F5F5F5F5F5F5F5F5F5F5EA2
:10600F005E5E5E5E5E5E5E5E5E5E5E0C0C0C060647
:10601F00030300000000000000000000000000006B
:10602F000000000000000000000000000000000061
:10603F000000000000000000000000000000000051
:10604F000000000000000000000000000000000041
:10605F000000000000000000000000000000000031
:10606F000000000000000000000000000000000021
:10607F0000000000000001010203050607090A0BDA
:10608F000C0E0F10121314151718191B1C1D1F1BA4
:10609F001C1D1F1D1E1F1F1E1D1C1B1A1918171636
:1060AF00151414131211100F0E0D0C0B0A0A0908F8
:1060BF00070605040302010101230B010203045229
:1060CF00554953534D4148412E5345CEDFCBC9530C
:1060DF0054544B4B59554BD3C3B7DEBDBDDEB7CC74
:1060EF00BCDE20050405040505030305000479053E
:1060FF003001CB009C0074005E004F0007040704C2
:10610F000502040504000779003001CB009C0074E0
:10611F00005E004F00030703050505060505000790
:10612F0093001801B6008A00650052004600020570
:10613F0004070706020506000584003801D200A2F5
:0A614F000079006200520000000811
:016309000093
:1063FA000000000000000000000000000000000093
:10640A000000000000000000000000000000000082
:10641A000000000000000000000000000000000072
:10642A000000000000000000000000000000000062
:10643A0000000000000000000000002828282800B2
:10644A00000000000000000000000000000000053D
:10645A000405040505030305000479003A01B600A2
:10646A008000660056004A0010A4000000000000E8
:03647A000000001F
:10683D00000000000000000000000000000000004B
:0E684D000F270F270F2700000000000000009B
:0868740000000000000000001C
:086895000000000000000000FB
:107636000000000000000000000000000000000044
:107646000000000000000000000000000000000034
:107656000000000000000000000000000000000024
:107666000000002E004A002E004A002E004A002E7E
:10767600004A0000000000000000000000000000BA
:1076860000000000000000000000000000000000F4
:03769600000000F1
:0376DF00C3981439
:00000001FF

142C
:00000001FF
0D3
:0376B700000000D0
:03770000C3A61409
:00000001FF
